<?xml version="1.0" encoding="utf-8"?>
<!-- Generator: Adobe Illustrator 19.1.0, SVG Export Plug-In . SVG Version: 6.00 Build 0)  -->
<svg version="1.1" id="Layer_3" xmlns="http://www.w3.org/2000/svg" xmlns:xlink="http://www.w3.org/1999/xlink" x="0px" y="0px"
	 viewBox="0 0 64 64" style="enable-background:new 0 0 64 64;" xml:space="preserve">
<style type="text/css">
	.st0{opacity:0.5;}
	.st1{fill:#202020;}
	.st2{opacity:0.5;fill:#202020;}
</style>
<g class="st0" fill="#ABABAB">
	<path class="st1" d="M46.8,38c5.6,0,10.2-4.4,10.2-9.9c0-5.5-4.6-9.9-10.2-9.9c-0.3,0-0.7,0-1,0.1c-2-4.9-6.9-8.3-12.6-8.3
		c-7,0-12.7,5-13.5,11.5c0,0-0.1,0-0.1,0c-4.7,0-8.5,3.7-8.5,8.2c0,4.5,3.8,8.2,8.5,8.2L46.8,38z"/>
	<path class="st1" d="M45,62c-1.1,0-2-0.9-2-2V44c0-1.1,0.9-2,2-2s2,0.9,2,2v16C47,61.1,46.1,62,45,62z"/>
	<path class="st1" d="M37,56c-1.1,0-2-0.9-2-2V44c0-1.1,0.9-2,2-2s2,0.9,2,2v10C39,55.1,38.1,56,37,56z"/>
	<path class="st1" d="M29,62c-1.1,0-2-0.9-2-2V44c0-1.1,0.9-2,2-2s2,0.9,2,2v16C31,61.1,30.1,62,29,62z"/>
	<path class="st1" d="M21,56c-1.1,0-2-0.9-2-2V44c0-1.1,0.9-2,2-2s2,0.9,2,2v10C23,55.1,22.1,56,21,56z"/>
	<path class="st1" d="M11.5,20.4c1.4-1.1,3-2,4.8-2.4c1.5-4.7,5.1-8.4,9.6-10.4C24.3,4.2,20.9,2,17,2c-0.3,0-0.5,0.1-0.7,0.1
		C16.7,3,16.9,3.9,16.9,5c0,3.9-3.1,7-7,7c-1,0-2-0.2-2.8-0.6C7.1,11.6,7,11.8,7,12C7,15.5,8.8,18.6,11.5,20.4z"/>
</g>
</svg>
